10 ANOVA: Part 2 – Biology 305: Biostatistics
…
# pre-created data frame of locations from earlier
locations2 <- c(paste("Location", 1:10)) %>%
  as.factor()

long_data <- crossing(locations2, food)

long_data$Sizes <- c(runif(n = nrow(long_data) - nrow(long_data)/length(unique(long_data$locations2)),
                           min = 9, max = 12),
                     runif(n = nrow(long_data)/length(unique(long_data$locations2)),
                           min = 11, max = 15)) %>%
  round(1)

long_data

# A tibble: 100 × 3
   locations2 food    Sizes
   <fct>      <fct>   <dbl>
 1 Location 1 Food 1    9.5
 2 Location 1 Food 10  10.4
 3 Location 1 Food 2   11.3
 4 Location 1 Food 3   11.3
 5 Location 1 Food 4    9.8
 6 Location 1 Food 5   11  
 7 Location 1 Food 6   11.9
 8 Location 1 Food 7   11.5
 9 Location 1 Food 8   11.6
10 Location 1 Food 9   10.3
# ℹ 90 more rows

Now that we have our expanded and randomized table, we can get started with our test.

First, we have to rank our measurement of interest, averaging the ties.

long_data$ranks <- rank(long_data$Sizes, ties.method = "average")

long_data

# A tibble: 100 × 4
   locations2 food    Sizes ranks
   <fct>      <fct>   <dbl> <dbl>
 1 Location 1 Food 1    9.5   9.5
 2 Location 1 Food 10  10.4  42.5
 3 Location 1 Food 2   11.3  66.5
 4 Location 1 Food 3   11.3  66.5
 5 Location 1 Food 4    9.8  18.5
 6 Location 1 Food 5   11    54.5
 7 Location 1 Food 6   11.9  92  
 8 Location 1 Food 7   11.5  76.5
 9 Location 1 Food 8   11.6  83  
10 Location 1 Food 9   10.3  38  
# ℹ 90 more rows
…
